Tampa Bay Open Science Workshop - 3 Open science for impactful products
…
Show the code

library(readxl)
library(dplyr)
library(tidyr)

# import and wrangle
dat <- read_excel('data/untidy.xlsx', skip = 1) %>% 
  fill(Location) %>% 
  pivot_longer(cols = `2019`:`2021`, names_to = 'Year', values_to = 'Acres/Category', names_transform = as.integer) %>% 
  separate(col = `Acres/Category`, into = c('Acres', 'Category'), sep = '/', convert = T)
dat

# A tibble: 27 x 5
   Location  Habitat   Year Acres Category
   <chr>     <chr>    <int> <int> <chr>   
 1 Clear Bay Seagrass  2019   519 B       
 2 Clear Bay Seagrass  2020   438 C       
 3 Clear Bay Seagrass  2021   375 A       
 4 Clear Bay Oysters   2019   390 B       
 5 Clear Bay Oysters   2020   875 B       
 6 Clear Bay Oysters   2021   724 A       
 7 Clear Bay Sand      2019   742 C       
 8 Clear Bay Sand      2020   702 A       
 9 Clear Bay Sand      2021   505 C       
10 Fish Bay  Seagrass  2019   930 B       
# ... with 17 more rows
…
